EESchema Schematic File Version 2
LIBS:power
LIBS:device
LIBS:transistors
LIBS:conn
LIBS:linear
LIBS:regul
LIBS:74xx
LIBS:cmos4000
LIBS:adc-dac
LIBS:memory
LIBS:xilinx
LIBS:microcontrollers
LIBS:dsp
LIBS:microchip
LIBS:analog_switches
LIBS:motorola
LIBS:texas
LIBS:intel
LIBS:audio
LIBS:interface
LIBS:digital-audio
LIBS:philips
LIBS:display
LIBS:cypress
LIBS:siliconi
LIBS:opto
LIBS:atmel
LIBS:contrib
LIBS:valves
LIBS:wemos
LIBS:switches
LIBS:sdramp-control-cache
EELAYER 25 0
EELAYER END
$Descr A4 11693 8268
encoding utf-8
Sheet 1 1
Title ""
Date ""
Rev ""
Comp ""
Comment1 ""
Comment2 ""
Comment3 ""
Comment4 ""
$EndDescr
$Comp
L Wemos_LoLin32 U1
U 1 1 59E2A183
P 5350 3450
F 0 "U1" H 5350 4500 60  0000 C CNN
F 1 "Wemos_LoLin32" H 5350 2350 60  0000 C CNN
F 2 "Wemos:LoLin_32_Board" H 5900 3000 60  0001 C CNN
F 3 "" H 5900 3000 60  0000 C CNN
	1    5350 3450
	1    0    0    -1  
$EndComp
$Comp
L SW_Push SW1
U 1 1 59E2A2F1
P 1600 2050
F 0 "SW1" H 1650 2150 50  0000 L CNN
F 1 "SW_BandUp" H 1600 1990 50  0000 C CNN
F 2 "Buttons_Switches_SMD:SW_SPST_B3S-1000" H 1600 2250 50  0001 C CNN
F 3 "" H 1600 2250 50  0000 C CNN
	1    1600 2050
	0    -1   -1   0   
$EndComp
$Comp
L SW_Push SW2
U 1 1 59E2A3BC
P 2000 2050
F 0 "SW2" H 2050 2150 50  0000 L CNN
F 1 "SW_BandDown" H 2000 1990 50  0000 C CNN
F 2 "Buttons_Switches_SMD:SW_SPST_B3S-1000" H 2000 2250 50  0001 C CNN
F 3 "" H 2000 2250 50  0000 C CNN
	1    2000 2050
	0    -1   -1   0   
$EndComp
$Comp
L SW_Push SW3
U 1 1 59E2A3E1
P 2550 3700
F 0 "SW3" H 2600 3800 50  0000 L CNN
F 1 "SW_PTT" H 2550 3640 50  0000 C CNN
F 2 "Buttons_Switches_SMD:SW_SPST_B3S-1000" H 2550 3900 50  0001 C CNN
F 3 "" H 2550 3900 50  0000 C CNN
	1    2550 3700
	0    -1   -1   0   
$EndComp
$Comp
L GND #PWR01
U 1 1 59E2A473
P 4700 4100
F 0 "#PWR01" H 4700 3850 50  0001 C CNN
F 1 "GND" H 4700 3950 50  0000 C CNN
F 2 "" H 4700 4100 50  0000 C CNN
F 3 "" H 4700 4100 50  0000 C CNN
	1    4700 4100
	1    0    0    -1  
$EndComp
$Comp
L GND #PWR02
U 1 1 59E2A49F
P 6600 2550
F 0 "#PWR02" H 6600 2300 50  0001 C CNN
F 1 "GND" H 6600 2400 50  0000 C CNN
F 2 "" H 6600 2550 50  0000 C CNN
F 3 "" H 6600 2550 50  0000 C CNN
	1    6600 2550
	1    0    0    -1  
$EndComp
$Comp
L +5V #PWR03
U 1 1 59E2A4C6
P 4050 3800
F 0 "#PWR03" H 4050 3650 50  0001 C CNN
F 1 "+5V" H 4050 3940 50  0000 C CNN
F 2 "" H 4050 3800 50  0000 C CNN
F 3 "" H 4050 3800 50  0000 C CNN
	1    4050 3800
	1    0    0    -1  
$EndComp
$Comp
L +3V3 #PWR04
U 1 1 59E2A4FE
P 6950 2600
F 0 "#PWR04" H 6950 2450 50  0001 C CNN
F 1 "+3V3" H 6950 2740 50  0000 C CNN
F 2 "" H 6950 2600 50  0000 C CNN
F 3 "" H 6950 2600 50  0000 C CNN
	1    6950 2600
	1    0    0    -1  
$EndComp
$Comp
L R R1
U 1 1 59E2A6F1
P 1600 1400
F 0 "R1" V 1680 1400 50  0000 C CNN
F 1 "10K" V 1600 1400 50  0000 C CNN
F 2 "Resistors_SMD:R_0805_HandSoldering" V 1530 1400 50  0001 C CNN
F 3 "" H 1600 1400 50  0000 C CNN
	1    1600 1400
	1    0    0    -1  
$EndComp
$Comp
L R R2
U 1 1 59E2A750
P 2000 1400
F 0 "R2" V 2080 1400 50  0000 C CNN
F 1 "10K" V 2000 1400 50  0000 C CNN
F 2 "Resistors_SMD:R_0805_HandSoldering" V 1930 1400 50  0001 C CNN
F 3 "" H 2000 1400 50  0000 C CNN
	1    2000 1400
	1    0    0    -1  
$EndComp
Text Label 4050 3000 0    60   ~ 0
ESP_33_BANDUP
Text Label 4050 2900 0    60   ~ 0
ESP_32_BANDDN
Text Label 700  1750 0    60   ~ 0
ESP_33_BANDUP
Text Label 2900 1750 2    60   ~ 0
ESP_32_BANDDN
Wire Wire Line
	3900 4000 4850 4000
Wire Wire Line
	4700 4000 4700 4100
Wire Wire Line
	3900 3900 4850 3900
Wire Wire Line
	4050 3900 4050 3800
Wire Wire Line
	4850 2900 4050 2900
Wire Wire Line
	4850 3000 4050 3000
Wire Wire Line
	1600 1550 1600 1850
Wire Wire Line
	700  1750 1600 1750
Connection ~ 1600 1750
Wire Wire Line
	2000 1550 2000 1850
Wire Wire Line
	2900 1750 2000 1750
Connection ~ 2000 1750
$Comp
L GND #PWR05
U 1 1 59E2A9E5
P 1600 2400
F 0 "#PWR05" H 1600 2150 50  0001 C CNN
F 1 "GND" H 1600 2250 50  0000 C CNN
F 2 "" H 1600 2400 50  0000 C CNN
F 3 "" H 1600 2400 50  0000 C CNN
	1    1600 2400
	1    0    0    -1  
$EndComp
$Comp
L GND #PWR06
U 1 1 59E2AA05
P 2000 2400
F 0 "#PWR06" H 2000 2150 50  0001 C CNN
F 1 "GND" H 2000 2250 50  0000 C CNN
F 2 "" H 2000 2400 50  0000 C CNN
F 3 "" H 2000 2400 50  0000 C CNN
	1    2000 2400
	1    0    0    -1  
$EndComp
$Comp
L +3V3 #PWR07
U 1 1 59E2AA25
P 1600 1100
F 0 "#PWR07" H 1600 950 50  0001 C CNN
F 1 "+3V3" H 1600 1240 50  0000 C CNN
F 2 "" H 1600 1100 50  0000 C CNN
F 3 "" H 1600 1100 50  0000 C CNN
	1    1600 1100
	1    0    0    -1  
$EndComp
$Comp
L +3V3 #PWR08
U 1 1 59E2AA45
P 2000 1100
F 0 "#PWR08" H 2000 950 50  0001 C CNN
F 1 "+3V3" H 2000 1240 50  0000 C CNN
F 2 "" H 2000 1100 50  0000 C CNN
F 3 "" H 2000 1100 50  0000 C CNN
	1    2000 1100
	1    0    0    -1  
$EndComp
Wire Wire Line
	1600 1100 1600 1250
Wire Wire Line
	2000 1100 2000 1250
Wire Wire Line
	1600 2250 1600 2400
Wire Wire Line
	2000 2250 2000 2400
$Comp
L CONN_01X04 P4
U 1 1 59E2AC04
P 10250 1350
F 0 "P4" H 10250 1600 50  0000 C CNN
F 1 "LCD_I2C" V 10350 1350 50  0000 C CNN
F 2 "Pin_Headers:Pin_Header_Straight_1x04" H 10250 1350 50  0001 C CNN
F 3 "" H 10250 1350 50  0000 C CNN
	1    10250 1350
	1    0    0    -1  
$EndComp
$Comp
L GND #PWR09
U 1 1 59E2AF7E
P 9700 1200
F 0 "#PWR09" H 9700 950 50  0001 C CNN
F 1 "GND" H 9700 1050 50  0000 C CNN
F 2 "" H 9700 1200 50  0000 C CNN
F 3 "" H 9700 1200 50  0000 C CNN
	1    9700 1200
	0    1    1    0   
$EndComp
$Comp
L +3V3 #PWR010
U 1 1 59E2AFA0
P 9450 1300
F 0 "#PWR010" H 9450 1150 50  0001 C CNN
F 1 "+3V3" H 9450 1440 50  0000 C CNN
F 2 "" H 9450 1300 50  0000 C CNN
F 3 "" H 9450 1300 50  0000 C CNN
	1    9450 1300
	0    -1   -1   0   
$EndComp
Wire Wire Line
	9700 1200 10050 1200
Wire Wire Line
	9450 1300 10050 1300
Text Label 6300 2900 2    60   ~ 0
ESP_SCL
Text Label 6300 3000 2    60   ~ 0
ESP_SCA
Text Label 9600 1500 0    60   ~ 0
ESP_SCL
Text Label 9600 1400 0    60   ~ 0
ESP_SCA
Wire Wire Line
	9600 1400 10050 1400
Wire Wire Line
	9600 1500 10050 1500
Wire Wire Line
	6300 3000 5850 3000
Wire Wire Line
	5850 2900 6300 2900
$Comp
L CONN_01X02 P1
U 1 1 59E2B820
P 1950 3700
F 0 "P1" H 1950 3850 50  0000 C CNN
F 1 "EXT_PTT" V 2050 3700 50  0000 C CNN
F 2 "Pin_Headers:Pin_Header_Straight_1x02" H 1950 3700 50  0001 C CNN
F 3 "" H 1950 3700 50  0000 C CNN
	1    1950 3700
	-1   0    0    -1  
$EndComp
$Comp
L GND #PWR011
U 1 1 59E2B9D1
P 2250 3800
F 0 "#PWR011" H 2250 3550 50  0001 C CNN
F 1 "GND" H 2250 3650 50  0000 C CNN
F 2 "" H 2250 3800 50  0000 C CNN
F 3 "" H 2250 3800 50  0000 C CNN
	1    2250 3800
	1    0    0    -1  
$EndComp
Wire Wire Line
	2150 3750 2250 3750
Wire Wire Line
	2250 3750 2250 3800
$Comp
L R R3
U 1 1 59E2BAEF
P 2550 3200
F 0 "R3" V 2630 3200 50  0000 C CNN
F 1 "10K" V 2550 3200 50  0000 C CNN
F 2 "Resistors_SMD:R_0805_HandSoldering" V 2480 3200 50  0001 C CNN
F 3 "" H 2550 3200 50  0000 C CNN
	1    2550 3200
	1    0    0    -1  
$EndComp
$Comp
L +3V3 #PWR012
U 1 1 59E2BB9A
P 2550 2950
F 0 "#PWR012" H 2550 2800 50  0001 C CNN
F 1 "+3V3" H 2550 3090 50  0000 C CNN
F 2 "" H 2550 2950 50  0000 C CNN
F 3 "" H 2550 2950 50  0000 C CNN
	1    2550 2950
	1    0    0    -1  
$EndComp
Wire Wire Line
	2550 3350 2550 3500
Wire Wire Line
	2550 2950 2550 3050
Text Label 4050 3100 0    60   ~ 0
ESP_34_PTT
Text Label 3200 3450 2    60   ~ 0
ESP_34_PTT
Wire Wire Line
	2150 3450 3200 3450
Connection ~ 2550 3450
Wire Wire Line
	4050 3100 4850 3100
Wire Wire Line
	2150 3650 2150 3450
$Comp
L GND #PWR013
U 1 1 59E2BE80
P 2550 4050
F 0 "#PWR013" H 2550 3800 50  0001 C CNN
F 1 "GND" H 2550 3900 50  0000 C CNN
F 2 "" H 2550 4050 50  0000 C CNN
F 3 "" H 2550 4050 50  0000 C CNN
	1    2550 4050
	1    0    0    -1  
$EndComp
Wire Wire Line
	2550 3900 2550 4050
Text Label 6250 4400 2    60   ~ 0
ESP_15
Text Label 6250 3900 2    60   ~ 0
ESP_16
Text Label 6250 3800 2    60   ~ 0
ESP_17
Wire Wire Line
	5850 3800 6250 3800
Wire Wire Line
	5850 3900 6250 3900
Wire Wire Line
	5850 4400 6250 4400
Text Label 6250 4000 2    60   ~ 0
ESP_4
Wire Wire Line
	5850 4000 6250 4000
$Comp
L CONN_01X02 P2
U 1 1 59E2CC7C
P 3700 3950
F 0 "P2" H 3700 4100 50  0000 C CNN
F 1 "5VPWR" V 3800 3950 50  0000 C CNN
F 2 "Pin_Headers:Pin_Header_Straight_1x02" H 3700 3950 50  0001 C CNN
F 3 "" H 3700 3950 50  0000 C CNN
	1    3700 3950
	-1   0    0    -1  
$EndComp
Connection ~ 4050 3900
Connection ~ 4700 4000
$Comp
L BSS138 Q1
U 1 1 59E2CDAF
P 7800 4400
F 0 "Q1" H 8000 4475 50  0000 L CNN
F 1 "BSS138" H 8000 4400 50  0000 L CNN
F 2 "TO_SOT_Packages_SMD:SOT-23" H 8000 4325 50  0001 L CIN
F 3 "" H 7800 4400 50  0000 L CNN
	1    7800 4400
	0    -1   -1   0   
$EndComp
$Comp
L BSS138 Q2
U 1 1 59E2CDFE
P 8600 4400
F 0 "Q2" H 8800 4475 50  0000 L CNN
F 1 "BSS138" H 8800 4400 50  0000 L CNN
F 2 "TO_SOT_Packages_SMD:SOT-23" H 8800 4325 50  0001 L CIN
F 3 "" H 8600 4400 50  0000 L CNN
	1    8600 4400
	0    -1   -1   0   
$EndComp
$Comp
L BSS138 Q3
U 1 1 59E2CE51
P 9350 4400
F 0 "Q3" H 9550 4475 50  0000 L CNN
F 1 "BSS138" H 9550 4400 50  0000 L CNN
F 2 "TO_SOT_Packages_SMD:SOT-23" H 9550 4325 50  0001 L CIN
F 3 "" H 9350 4400 50  0000 L CNN
	1    9350 4400
	0    -1   -1   0   
$EndComp
$Comp
L BSS138 Q4
U 1 1 59E2CE8C
P 10200 4400
F 0 "Q4" H 10400 4475 50  0000 L CNN
F 1 "BSS138" H 10400 4400 50  0000 L CNN
F 2 "TO_SOT_Packages_SMD:SOT-23" H 10400 4325 50  0001 L CIN
F 3 "" H 10200 4400 50  0000 L CNN
	1    10200 4400
	0    -1   -1   0   
$EndComp
$Comp
L CONN_01X04 P3
U 1 1 59E2D1E3
P 8850 5800
F 0 "P3" H 8850 6050 50  0000 C CNN
F 1 "RADIO_BANDSEL_PTT" V 8950 5800 50  0000 C CNN
F 2 "Pin_Headers:Pin_Header_Straight_1x04" H 8850 5800 50  0001 C CNN
F 3 "" H 8850 5800 50  0000 C CNN
	1    8850 5800
	0    1    1    0   
$EndComp
$Comp
L +3V3 #PWR014
U 1 1 59E2D598
P 10550 4100
F 0 "#PWR014" H 10550 3950 50  0001 C CNN
F 1 "+3V3" H 10550 4240 50  0000 C CNN
F 2 "" H 10550 4100 50  0000 C CNN
F 3 "" H 10550 4100 50  0000 C CNN
	1    10550 4100
	1    0    0    -1  
$EndComp
$Comp
L +3V3 #PWR015
U 1 1 59E2D5CA
P 9650 4100
F 0 "#PWR015" H 9650 3950 50  0001 C CNN
F 1 "+3V3" H 9650 4240 50  0000 C CNN
F 2 "" H 9650 4100 50  0000 C CNN
F 3 "" H 9650 4100 50  0000 C CNN
	1    9650 4100
	1    0    0    -1  
$EndComp
$Comp
L +3V3 #PWR016
U 1 1 59E2D5FC
P 8900 4100
F 0 "#PWR016" H 8900 3950 50  0001 C CNN
F 1 "+3V3" H 8900 4240 50  0000 C CNN
F 2 "" H 8900 4100 50  0000 C CNN
F 3 "" H 8900 4100 50  0000 C CNN
	1    8900 4100
	1    0    0    -1  
$EndComp
$Comp
L +3V3 #PWR017
U 1 1 59E2D62E
P 8100 4100
F 0 "#PWR017" H 8100 3950 50  0001 C CNN
F 1 "+3V3" H 8100 4240 50  0000 C CNN
F 2 "" H 8100 4100 50  0000 C CNN
F 3 "" H 8100 4100 50  0000 C CNN
	1    8100 4100
	1    0    0    -1  
$EndComp
$Comp
L +5V #PWR018
U 1 1 59E2D660
P 9900 4100
F 0 "#PWR018" H 9900 3950 50  0001 C CNN
F 1 "+5V" H 9900 4240 50  0000 C CNN
F 2 "" H 9900 4100 50  0000 C CNN
F 3 "" H 9900 4100 50  0000 C CNN
	1    9900 4100
	1    0    0    -1  
$EndComp
$Comp
L +5V #PWR019
U 1 1 59E2D692
P 9100 4100
F 0 "#PWR019" H 9100 3950 50  0001 C CNN
F 1 "+5V" H 9100 4240 50  0000 C CNN
F 2 "" H 9100 4100 50  0000 C CNN
F 3 "" H 9100 4100 50  0000 C CNN
	1    9100 4100
	1    0    0    -1  
$EndComp
$Comp
L +5V #PWR020
U 1 1 59E2D6C4
P 8300 4100
F 0 "#PWR020" H 8300 3950 50  0001 C CNN
F 1 "+5V" H 8300 4240 50  0000 C CNN
F 2 "" H 8300 4100 50  0000 C CNN
F 3 "" H 8300 4100 50  0000 C CNN
	1    8300 4100
	1    0    0    -1  
$EndComp
$Comp
L +5V #PWR021
U 1 1 59E2D6F6
P 7500 4100
F 0 "#PWR021" H 7500 3950 50  0001 C CNN
F 1 "+5V" H 7500 4240 50  0000 C CNN
F 2 "" H 7500 4100 50  0000 C CNN
F 3 "" H 7500 4100 50  0000 C CNN
	1    7500 4100
	1    0    0    -1  
$EndComp
Wire Wire Line
	10550 4300 10550 4100
Wire Wire Line
	10400 4300 10550 4300
Wire Wire Line
	9900 4100 9900 4300
Wire Wire Line
	9900 4300 10000 4300
Wire Wire Line
	9650 4300 9650 4100
Wire Wire Line
	9550 4300 9650 4300
Wire Wire Line
	9100 4100 9100 4300
Wire Wire Line
	9100 4300 9150 4300
Wire Wire Line
	8900 4300 8900 4100
Wire Wire Line
	8800 4300 8900 4300
Wire Wire Line
	8300 4100 8300 4300
Wire Wire Line
	8300 4300 8400 4300
Wire Wire Line
	8100 4300 8100 4100
Wire Wire Line
	8000 4300 8100 4300
$Comp
L R R10
U 1 1 59E2D980
P 9950 4850
F 0 "R10" V 10030 4850 50  0000 C CNN
F 1 "10K" V 9950 4850 50  0000 C CNN
F 2 "Resistors_SMD:R_0805_HandSoldering" V 9880 4850 50  0001 C CNN
F 3 "" H 9950 4850 50  0000 C CNN
	1    9950 4850
	1    0    0    -1  
$EndComp
$Comp
L R R8
U 1 1 59E2D9BD
P 9150 4850
F 0 "R8" V 9230 4850 50  0000 C CNN
F 1 "10K" V 9150 4850 50  0000 C CNN
F 2 "Resistors_SMD:R_0805_HandSoldering" V 9080 4850 50  0001 C CNN
F 3 "" H 9150 4850 50  0000 C CNN
	1    9150 4850
	1    0    0    -1  
$EndComp
$Comp
L R R6
U 1 1 59E2D9FA
P 8350 4850
F 0 "R6" V 8430 4850 50  0000 C CNN
F 1 "10K" V 8350 4850 50  0000 C CNN
F 2 "Resistors_SMD:R_0805_HandSoldering" V 8280 4850 50  0001 C CNN
F 3 "" H 8350 4850 50  0000 C CNN
	1    8350 4850
	1    0    0    -1  
$EndComp
$Comp
L R R4
U 1 1 59E2DA33
P 7550 4850
F 0 "R4" V 7630 4850 50  0000 C CNN
F 1 "10K" V 7550 4850 50  0000 C CNN
F 2 "Resistors_SMD:R_0805_HandSoldering" V 7480 4850 50  0001 C CNN
F 3 "" H 7550 4850 50  0000 C CNN
	1    7550 4850
	1    0    0    -1  
$EndComp
Wire Wire Line
	9950 4700 9950 4300
Connection ~ 9950 4300
Wire Wire Line
	9150 4300 9150 4700
Wire Wire Line
	8350 4700 8350 4300
Connection ~ 8350 4300
Wire Wire Line
	9950 5000 9950 5400
Wire Wire Line
	9950 5400 9000 5400
Wire Wire Line
	9000 5400 9000 5600
Wire Wire Line
	9150 5000 9150 5300
Wire Wire Line
	9150 5300 8900 5300
Wire Wire Line
	8900 5300 8900 5600
Text Label 10500 5050 1    60   ~ 0
ESP_15
$Comp
L R R11
U 1 1 59E2DDB4
P 10500 4500
F 0 "R11" V 10580 4500 50  0000 C CNN
F 1 "10K" V 10500 4500 50  0000 C CNN
F 2 "Resistors_SMD:R_0805_HandSoldering" V 10430 4500 50  0001 C CNN
F 3 "" H 10500 4500 50  0000 C CNN
	1    10500 4500
	1    0    0    -1  
$EndComp
$Comp
L R R9
U 1 1 59E2DE1B
P 9600 4500
F 0 "R9" V 9680 4500 50  0000 C CNN
F 1 "10K" V 9600 4500 50  0000 C CNN
F 2 "Resistors_SMD:R_0805_HandSoldering" V 9530 4500 50  0001 C CNN
F 3 "" H 9600 4500 50  0000 C CNN
	1    9600 4500
	1    0    0    -1  
$EndComp
$Comp
L R R7
U 1 1 59E2DE9C
P 8850 4500
F 0 "R7" V 8930 4500 50  0000 C CNN
F 1 "10K" V 8850 4500 50  0000 C CNN
F 2 "Resistors_SMD:R_0805_HandSoldering" V 8780 4500 50  0001 C CNN
F 3 "" H 8850 4500 50  0000 C CNN
	1    8850 4500
	1    0    0    -1  
$EndComp
$Comp
L R R5
U 1 1 59E2DEDF
P 8050 4500
F 0 "R5" V 8130 4500 50  0000 C CNN
F 1 "10K" V 8050 4500 50  0000 C CNN
F 2 "Resistors_SMD:R_0805_HandSoldering" V 7980 4500 50  0001 C CNN
F 3 "" H 8050 4500 50  0000 C CNN
	1    8050 4500
	1    0    0    -1  
$EndComp
Text Label 9600 5050 1    60   ~ 0
ESP_16
Text Label 8850 5050 1    60   ~ 0
ESP_17
Text Label 8050 5050 1    60   ~ 0
ESP_4
Wire Wire Line
	10500 5050 10500 4650
Wire Wire Line
	10500 4350 10500 4300
Connection ~ 10500 4300
Wire Wire Line
	10250 4600 10250 4650
Wire Wire Line
	10250 4650 10500 4650
Wire Wire Line
	9600 5050 9600 4650
Wire Wire Line
	9600 4350 9600 4300
Connection ~ 9600 4300
Wire Wire Line
	9400 4600 9400 4650
Wire Wire Line
	9400 4650 9600 4650
Wire Wire Line
	8850 5050 8850 4650
Wire Wire Line
	8850 4350 8850 4300
Connection ~ 8850 4300
Wire Wire Line
	8650 4600 8650 4650
Wire Wire Line
	8650 4650 8850 4650
Wire Wire Line
	8050 5050 8050 4650
Wire Wire Line
	8050 4350 8050 4300
Connection ~ 8050 4300
Wire Wire Line
	7850 4600 7850 4650
Wire Wire Line
	7850 4650 8050 4650
Wire Wire Line
	8350 5000 8350 5300
Wire Wire Line
	8350 5300 8800 5300
Wire Wire Line
	8800 5300 8800 5600
Wire Wire Line
	7550 5000 7550 5400
Wire Wire Line
	7550 5400 8700 5400
Wire Wire Line
	8700 5400 8700 5600
Wire Wire Line
	7500 4300 7600 4300
Wire Wire Line
	7500 4300 7500 4100
Wire Wire Line
	7550 4700 7550 4300
NoConn ~ 5850 2600
NoConn ~ 5850 2700
NoConn ~ 5850 3300
NoConn ~ 5850 3400
NoConn ~ 5850 3500
NoConn ~ 5850 3600
NoConn ~ 5850 4100
NoConn ~ 5850 4300
NoConn ~ 4850 3800
NoConn ~ 4850 3700
NoConn ~ 4850 3600
NoConn ~ 4850 3500
NoConn ~ 4850 3400
NoConn ~ 4850 3300
NoConn ~ 4850 3200
NoConn ~ 4850 2800
NoConn ~ 4850 2700
NoConn ~ 4850 2600
Wire Wire Line
	5850 2500 6600 2500
Wire Wire Line
	6600 2500 6600 2550
NoConn ~ 5850 3100
NoConn ~ 5850 3200
NoConn ~ 5850 4200
Wire Wire Line
	5850 2800 6950 2800
Wire Wire Line
	6950 2800 6950 2600
Connection ~ 7550 4300
NoConn ~ 5850 3700
NoConn ~ 4850 2500
$EndSCHEMATC
