G04 #@! TF.FileFunction,Soldermask,Top*
%FSLAX46Y46*%
G04 Gerber Fmt 4.6, Leading zero omitted, Abs format (unit mm)*
G04 Created by KiCad (PCBNEW 4.0.5+dfsg1-4) date Sun Oct 15 15:06:42 2017*
%MOMM*%
%LPD*%
G01*
G04 APERTURE LIST*
%ADD10C,0.100000*%
%ADD11R,2.432000X2.432000*%
%ADD12O,2.432000X2.432000*%
%ADD13R,2.432000X2.127200*%
%ADD14O,2.432000X2.127200*%
%ADD15R,1.300000X1.200000*%
%ADD16R,1.900000X1.700000*%
%ADD17R,1.950000X1.700000*%
%ADD18C,2.200000*%
G04 APERTURE END LIST*
D10*
D11*
X93980000Y-119380000D03*
D12*
X93980000Y-121920000D03*
D11*
X105410000Y-133350000D03*
D12*
X102870000Y-133350000D03*
D13*
X176530000Y-114300000D03*
D14*
X176530000Y-116840000D03*
X176530000Y-119380000D03*
X176530000Y-121920000D03*
D13*
X156210000Y-85090000D03*
D14*
X156210000Y-87630000D03*
X156210000Y-90170000D03*
X156210000Y-92710000D03*
D15*
X160290000Y-128590000D03*
X160290000Y-130490000D03*
X162290000Y-129540000D03*
X160290000Y-120970000D03*
X160290000Y-122870000D03*
X162290000Y-121920000D03*
X160290000Y-113350000D03*
X160290000Y-115250000D03*
X162290000Y-114300000D03*
X160290000Y-105730000D03*
X160290000Y-107630000D03*
X162290000Y-106680000D03*
D16*
X104060000Y-77470000D03*
X106760000Y-77470000D03*
X95170000Y-95250000D03*
X97870000Y-95250000D03*
X96440000Y-111760000D03*
X99140000Y-111760000D03*
X167560000Y-129540000D03*
X170260000Y-129540000D03*
X153750000Y-127000000D03*
X151050000Y-127000000D03*
X167560000Y-121920000D03*
X170260000Y-121920000D03*
X153750000Y-120650000D03*
X151050000Y-120650000D03*
X167560000Y-114300000D03*
X170260000Y-114300000D03*
X153750000Y-114300000D03*
X151050000Y-114300000D03*
X167560000Y-107950000D03*
X170260000Y-107950000D03*
X153750000Y-107950000D03*
X151050000Y-107950000D03*
D17*
X109385000Y-87340000D03*
X101435000Y-87340000D03*
X109385000Y-82840000D03*
X101435000Y-82840000D03*
X109385000Y-100040000D03*
X101435000Y-100040000D03*
X109385000Y-95540000D03*
X101435000Y-95540000D03*
X109385000Y-122900000D03*
X101435000Y-122900000D03*
X109385000Y-118400000D03*
X101435000Y-118400000D03*
D18*
X142240000Y-133350000D03*
X142240000Y-130810000D03*
X142240000Y-128270000D03*
X142240000Y-125730000D03*
X142240000Y-123190000D03*
X142240000Y-120650000D03*
X142240000Y-118110000D03*
X142240000Y-115570000D03*
X142240000Y-113030000D03*
X142240000Y-110490000D03*
X142240000Y-107950000D03*
X142240000Y-105410000D03*
X119380000Y-123190000D03*
X119380000Y-120650000D03*
X119380000Y-118110000D03*
X119380000Y-115570000D03*
X119380000Y-113030000D03*
X119380000Y-110490000D03*
X119380000Y-107950000D03*
X119380000Y-105410000D03*
X119380000Y-102870000D03*
X119380000Y-100330000D03*
X119380000Y-97790000D03*
X119380000Y-95250000D03*
X119380000Y-92710000D03*
X119380000Y-90170000D03*
X119380000Y-87630000D03*
X119380000Y-85090000D03*
X142240000Y-102870000D03*
X142240000Y-100330000D03*
X142240000Y-97790000D03*
X142240000Y-95250000D03*
X142240000Y-92710000D03*
X142240000Y-90170000D03*
X142240000Y-87630000D03*
X142240000Y-85090000D03*
M02*
